<?xml version="1.0" encoding="UTF-8"?>
<glyph name="N_A_Ntilde.liga" format="2">
	<advance width="2595"/>
	<outline>
		<component base="_part.AA2" xOffset="866"/>
		<component base="_part.N"/>
		<component base="_part.Ntilde2" xOffset="1601"/>
	</outline>
	<lib>
		<dict>
			<key>com.schriftgestaltung.Glyphs.ComponentInfo</key>
			<array>
				<dict>
					<key>alignment</key>
					<integer>-1</integer>
					<key>index</key>
					<integer>0</integer>
					<key>name</key>
					<string>_part.AA2</string>
				</dict>
				<dict>
					<key>alignment</key>
					<integer>-1</integer>
					<key>index</key>
					<integer>1</integer>
					<key>name</key>
					<string>_part.N</string>
				</dict>
				<dict>
					<key>alignment</key>
					<integer>-1</integer>
					<key>index</key>
					<integer>2</integer>
					<key>name</key>
					<string>_part.Ntilde2</string>
				</dict>
			</array>
			<key>com.schriftgestaltung.Glyphs.leftMetricsKey</key>
			<string>N</string>
			<key>com.schriftgestaltung.Glyphs.rightMetricsKey</key>
			<string>Ntilde</string>
		</dict>
	</lib>
</glyph>
