<?xml version="1.0" encoding="UTF-8"?>
<glyph name="u1F712" format="2">
	<advance width="706"/>
	<unicode hex="1F712"/>
	<outline>
		<contour>
			<point x="428" y="47" type="curve"/>
			<point x="428" y="90"/>
			<point x="390" y="115"/>
			<point x="353" y="115" type="curve"/>
			<point x="316" y="115"/>
			<point x="278" y="90"/>
			<point x="278" y="47" type="curve"/>
			<point x="278" y="11"/>
			<point x="306" y="-12"/>
			<point x="337" y="-18" type="curve"/>
			<point x="338" y="-19"/>
			<point x="339" y="-19"/>
			<point x="339" y="-21" type="curve"/>
			<point x="340" y="-25"/>
			<point x="340" y="-32"/>
			<point x="341" y="-41" type="curve"/>
			<point x="305" y="-40"/>
			<point x="305" y="-34"/>
			<point x="305" y="-34" type="curve"/>
			<point x="298" y="-34" type="line"/>
			<point x="298" y="-72" type="line"/>
			<point x="305" y="-72" type="line"/>
			<point x="305" y="-72"/>
			<point x="305" y="-67"/>
			<point x="341" y="-65" type="curve"/>
			<point x="339" y="-101"/>
			<point x="334" y="-101"/>
			<point x="334" y="-101" type="curve"/>
			<point x="334" y="-108" type="line"/>
			<point x="372" y="-108" type="line"/>
			<point x="372" y="-101" type="line"/>
			<point x="372" y="-101"/>
			<point x="366" y="-101"/>
			<point x="365" y="-65" type="curve"/>
			<point x="401" y="-67"/>
			<point x="401" y="-72"/>
			<point x="401" y="-72" type="curve"/>
			<point x="408" y="-72" type="line"/>
			<point x="408" y="-34" type="line"/>
			<point x="401" y="-34" type="line"/>
			<point x="401" y="-34"/>
			<point x="401" y="-40"/>
			<point x="365" y="-41" type="curve"/>
			<point x="365" y="-32"/>
			<point x="366" y="-25"/>
			<point x="367" y="-21" type="curve"/>
			<point x="367" y="-19"/>
			<point x="368" y="-19"/>
			<point x="369" y="-18" type="curve"/>
			<point x="400" y="-12"/>
			<point x="428" y="11"/>
		</contour>
		<contour>
			<point x="310" y="47" type="curve"/>
			<point x="310" y="73"/>
			<point x="331" y="89"/>
			<point x="353" y="89" type="curve"/>
			<point x="376" y="89"/>
			<point x="397" y="73"/>
			<point x="397" y="47" type="curve"/>
			<point x="397" y="22"/>
			<point x="376" y="6"/>
			<point x="353" y="6" type="curve"/>
			<point x="331" y="6"/>
			<point x="310" y="22"/>
		</contour>
		<contour>
			<point x="353" y="223" type="curve"/>
			<point x="316" y="223"/>
			<point x="278" y="198"/>
			<point x="278" y="156" type="curve"/>
			<point x="278" y="114"/>
			<point x="316" y="89"/>
			<point x="353" y="89" type="curve"/>
			<point x="390" y="89"/>
			<point x="428" y="114"/>
			<point x="428" y="156" type="curve"/>
			<point x="428" y="198"/>
			<point x="390" y="223"/>
		</contour>
		<contour>
			<point x="353" y="115" type="curve"/>
			<point x="331" y="115"/>
			<point x="310" y="131"/>
			<point x="310" y="156" type="curve"/>
			<point x="310" y="181"/>
			<point x="331" y="197"/>
			<point x="353" y="197" type="curve"/>
			<point x="376" y="197"/>
			<point x="397" y="181"/>
			<point x="397" y="156" type="curve"/>
			<point x="397" y="131"/>
			<point x="376" y="115"/>
		</contour>
		<contour>
			<point x="54" y="256" type="curve"/>
			<point x="25" y="256" type="line"/>
			<point x="25" y="86" type="line"/>
			<point x="54" y="86" type="line"/>
			<point x="54" y="86"/>
			<point x="54" y="112"/>
			<point x="246" y="114" type="curve"/>
			<point x="242" y="127"/>
			<point x="240" y="140"/>
			<point x="240" y="152" type="curve" smooth="yes"/>
			<point x="240" y="211"/>
			<point x="284" y="262"/>
			<point x="352" y="262" type="curve"/>
			<point x="425" y="262"/>
			<point x="465" y="210"/>
			<point x="465" y="153" type="curve" smooth="yes"/>
			<point x="465" y="140"/>
			<point x="463" y="127"/>
			<point x="459" y="114" type="curve"/>
			<point x="651" y="112"/>
			<point x="651" y="86"/>
			<point x="651" y="86" type="curve"/>
			<point x="681" y="86" type="line"/>
			<point x="681" y="256" type="line"/>
			<point x="651" y="256" type="line"/>
			<point x="651" y="256"/>
			<point x="651" y="238"/>
			<point x="552" y="235" type="curve"/>
			<point x="528" y="323"/>
			<point x="448" y="372"/>
			<point x="353" y="372" type="curve"/>
			<point x="258" y="372"/>
			<point x="179" y="323"/>
			<point x="154" y="235" type="curve"/>
			<point x="54" y="238"/>
			<point x="54" y="256"/>
		</contour>
	</outline>
</glyph>
