<?xml version="1.0" encoding="UTF-8"?>
<glyph name="uni0137" format="2">
	<advance width="683"/>
	<unicode hex="0137"/>
	<outline>
		<component base="k"/>
		<component base="uni0326" xOffset="279"/>
	</outline>
</glyph>
