<?xml version="1.0" encoding="UTF-8"?>
<glyph name="V_I.liga" format="2">
	<advance width="1437"/>
	<outline>
		<component base="_part.V"/>
		<component base="_part.I3" xOffset="858"/>
	</outline>
	<lib>
		<dict>
			<key>com.schriftgestaltung.Glyphs.ComponentInfo</key>
			<array>
				<dict>
					<key>alignment</key>
					<integer>-1</integer>
					<key>index</key>
					<integer>0</integer>
					<key>name</key>
					<string>_part.V</string>
				</dict>
				<dict>
					<key>alignment</key>
					<integer>-1</integer>
					<key>index</key>
					<integer>1</integer>
					<key>name</key>
					<string>_part.I3</string>
				</dict>
			</array>
			<key>com.schriftgestaltung.Glyphs.leftMetricsKey</key>
			<string>V</string>
			<key>com.schriftgestaltung.Glyphs.rightMetricsKey</key>
			<string>I</string>
		</dict>
	</lib>
</glyph>
